…
``` r
map_dfr(got_chars, `[`, desired_info) # makes output into a dataframe
```

    ## # A tibble: 30 x 2
    ##    name               born                                  
    ##    <chr>              <chr>                                 
    ##  1 Theon Greyjoy      In 278 AC or 279 AC, at Pyke          
    ##  2 Tyrion Lannister   In 273 AC, at Casterly Rock           
    ##  3 Victarion Greyjoy  In 268 AC or before, at Pyke          
    ##  4 Will               ""                                    
    ##  5 Areo Hotah         In 257 AC or before, at Norvos        
    ##  6 Chett              At Hag's Mire                         
    ##  7 Cressen            In 219 AC or 220 AC                   
    ##  8 Arianne Martell    In 276 AC, at Sunspear                
    ##  9 Daenerys Targaryen In 284 AC, at Dragonstone             
    ## 10 Davos Seaworth     In 260 AC or before, at King's Landing
    ## # ... with 20 more rows

Note: as Jenny says, it's always safer (from a programming perspective) to work with output that's more predictable. The following would be safer, and is still readable:

``` r
got_chars %>% {
    tibble(
        name = map_chr(., "name"),
        born = map_chr(., "born")
    )
} #without these brackets, got_chars would be piped into first argument of tibble(). last thing that is executed in curly braces gets return outside of braces, only tibble gets returned
```

    ## # A tibble: 30 x 2
    ##    name               born                                  
    ##    <chr>              <chr>                                 
    ##  1 Theon Greyjoy      In 278 AC or 279 AC, at Pyke          
    ##  2 Tyrion Lannister   In 273 AC, at Casterly Rock           
    ##  3 Victarion Greyjoy  In 268 AC or before, at Pyke          
    ##  4 Will               ""                                    
    ##  5 Areo Hotah         In 257 AC or before, at Norvos        
    ##  6 Chett              At Hag's Mire                         
    ##  7 Cressen            In 219 AC or 220 AC                   
    ##  8 Arianne Martell    In 276 AC, at Sunspear                
    ##  9 Daenerys Targaryen In 284 AC, at Dragonstone             
    ## 10 Davos Seaworth     In 260 AC or before, at King's Landing
    ## # ... with 20 more rows

Note the curly braces "tricks" the object prior to the pipe from entering as the first argument to `tibble`, because ``` ``{`` ``` only returns the last line evaluated. In this case there are two: the above code is equivalent to

``` r
got_chars %>% {
    .
    tibble(
        name = map_chr(., "name"),
        born = map_chr(., "born")
    )
}
```

    ## # A tibble: 30 x 2
    ##    name               born                                  
    ##    <chr>              <chr>                                 
    ##  1 Theon Greyjoy      In 278 AC or 279 AC, at Pyke          
    ##  2 Tyrion Lannister   In 273 AC, at Casterly Rock           
    ##  3 Victarion Greyjoy  In 268 AC or before, at Pyke          
    ##  4 Will               ""                                    
    ##  5 Areo Hotah         In 257 AC or before, at Norvos        
    ##  6 Chett              At Hag's Mire                         
    ##  7 Cressen            In 219 AC or 220 AC                   
    ##  8 Arianne Martell    In 276 AC, at Sunspear                
    ##  9 Daenerys Targaryen In 284 AC, at Dragonstone             
    ## 10 Davos Seaworth     In 260 AC or before, at King's Landing
    ## # ... with 20 more rows
